<?xml version="1.0" encoding="UTF-8"?>
<svg xmlns="http://www.w3.org/2000/svg" xmlns:xlink="http://www.w3.org/1999/xlink" width="800pt" height="200pt" viewBox="0 0 800 200" version="1.1">
<g id="surface1">
<path style=" stroke:none;fill-rule:nonzero;fill:rgb(0%,0%,0%);fill-opacity:1;" d="M 0 100 L 7.851562 99.9375 L 15.703125 99.878906 L 23.554688 99.816406 L 31.410156 99.753906 L 39.261719 99.695312 L 54.964844 99.570312 L 62.816406 99.511719 L 70.667969 99.449219 L 78.523438 99.386719 L 86.375 99.328125 L 102.078125 99.203125 L 109.929688 99.144531 L 117.78125 99.082031 L 125.636719 99.019531 L 133.488281 98.960938 L 149.191406 98.835938 L 157.042969 98.777344 L 172.746094 98.652344 L 180.601562 98.589844 L 188.453125 98.53125 L 204.15625 98.40625 L 212.007812 98.347656 L 219.859375 98.285156 L 227.714844 98.222656 L 235.566406 98.164062 L 251.269531 98.039062 L 259.121094 97.980469 L 266.972656 97.917969 L 274.828125 97.855469 L 282.679688 97.796875 L 298.382812 97.671875 L 306.234375 97.613281 L 321.9375 97.488281 L 329.792969 97.429688 L 345.496094 97.304688 L 353.347656 97.246094 L 369.050781 97.121094 L 376.90625 97.0625 L 392.609375 96.9375 L 408.90625 97.0625 L 417.050781 97.121094 L 433.347656 97.246094 L 441.496094 97.304688 L 457.792969 97.429688 L 465.9375 97.488281 L 482.234375 97.613281 L 490.382812 97.671875 L 506.679688 97.796875 L 514.828125 97.855469 L 522.972656 97.917969 L 531.121094 97.980469 L 539.269531 98.039062 L 555.566406 98.164062 L 563.714844 98.222656 L 571.859375 98.285156 L 580.007812 98.347656 L 588.15625 98.40625 L 604.453125 98.53125 L 612.601562 98.589844 L 620.746094 98.652344 L 637.042969 98.777344 L 645.191406 98.835938 L 661.488281 98.960938 L 669.636719 99.019531 L 677.78125 99.082031 L 685.929688 99.144531 L 694.078125 99.203125 L 710.375 99.328125 L 718.523438 99.386719 L 726.667969 99.449219 L 734.816406 99.511719 L 742.964844 99.570312 L 759.261719 99.695312 L 767.410156 99.753906 L 775.554688 99.816406 L 783.703125 99.878906 L 791.851562 99.9375 L 792.148438 100.0625 L 784.296875 100.121094 L 776.445312 100.183594 L 768.589844 100.246094 L 760.738281 100.304688 L 745.035156 100.429688 L 737.183594 100.488281 L 729.332031 100.550781 L 721.476562 100.613281 L 713.625 100.671875 L 697.921875 100.796875 L 690.070312 100.855469 L 682.21875 100.917969 L 674.363281 100.980469 L 666.511719 101.039062 L 650.808594 101.164062 L 642.957031 101.222656 L 627.253906 101.347656 L 619.398438 101.410156 L 611.546875 101.46875 L 595.84375 101.59375 L 587.992188 101.652344 L 580.140625 101.714844 L 572.285156 101.777344 L 564.433594 101.835938 L 548.730469 101.960938 L 540.878906 102.019531 L 533.027344 102.082031 L 525.171875 102.144531 L 517.320312 102.203125 L 501.617188 102.328125 L 493.765625 102.386719 L 478.0625 102.511719 L 470.207031 102.570312 L 454.503906 102.695312 L 446.652344 102.753906 L 430.949219 102.878906 L 423.09375 102.9375 L 407.390625 103.0625 L 391.09375 102.9375 L 382.949219 102.878906 L 366.652344 102.753906 L 358.503906 102.695312 L 342.207031 102.570312 L 334.0625 102.511719 L 317.765625 102.386719 L 309.617188 102.328125 L 293.320312 102.203125 L 285.171875 102.144531 L 277.027344 102.082031 L 268.878906 102.019531 L 260.730469 101.960938 L 244.433594 101.835938 L 236.285156 101.777344 L 228.140625 101.714844 L 219.992188 101.652344 L 211.84375 101.59375 L 195.546875 101.46875 L 187.398438 101.410156 L 179.253906 101.347656 L 162.957031 101.222656 L 154.808594 101.164062 L 138.511719 101.039062 L 130.363281 100.980469 L 122.21875 100.917969 L 114.070312 100.855469 L 105.921875 100.796875 L 89.625 100.671875 L 81.476562 100.613281 L 73.332031 100.550781 L 65.183594 100.488281 L 57.035156 100.429688 L 40.738281 100.304688 L 32.589844 100.246094 L 24.445312 100.183594 L 16.296875 100.121094 L 8.148438 100.0625 Z M 0 100 "/>
</g>
</svg>
