<?xml version="1.0" encoding="UTF-8"?>
<svg xmlns="http://www.w3.org/2000/svg" xmlns:xlink="http://www.w3.org/1999/xlink" width="800pt" height="800pt" viewBox="0 0 800 800" version="1.1">
<g id="surface1">
<path style=" stroke:none;fill-rule:nonzero;fill:rgb(0%,0%,0%);fill-opacity:1;" d="M 286.101562 95.648438 L 283.738281 91.558594 L 284.035156 91.054688 L 284.25 90.75 L 284.523438 90.410156 L 284.964844 90.050781 L 285.507812 89.671875 L 286.136719 89.242188 L 286.851562 88.789062 L 287.605469 88.300781 L 288.425781 87.839844 L 289.316406 87.46875 L 290.246094 87.125 L 291.179688 86.90625 L 292.074219 86.730469 L 292.859375 86.589844 L 293.5625 86.480469 L 294.152344 86.402344 L 294.683594 86.320312 L 295.191406 86.28125 L 295.683594 86.308594 L 296.175781 86.398438 L 296.589844 86.539062 L 297.007812 86.777344 L 297.277344 87.058594 L 300.558594 92.738281 L 300.734375 93.171875 L 300.828125 93.722656 L 300.777344 94.394531 L 300.660156 95.265625 L 300.4375 96.253906 L 300.054688 97.363281 L 299.503906 98.515625 L 298.828125 99.664062 L 298.050781 100.789062 L 297.195312 101.898438 L 296.277344 103.070312 L 295.296875 104.300781 L 294.257812 105.597656 L 293.300781 106.957031 L 292.40625 108.296875 L 291.59375 109.554688 L 290.859375 110.710938 L 290.128906 111.804688 L 289.4375 112.832031 L 288.828125 113.925781 L 288.339844 115.097656 L 287.976562 116.269531 L 287.773438 117.417969 L 287.632812 118.386719 L 287.632812 119.167969 L 287.820312 119.746094 L 284.3125 113.664062 L 284.675781 113.984375 L 285.265625 114.125 L 286.101562 114.035156 L 287.203125 113.644531 L 288.574219 113.007812 L 290.230469 112.0625 L 292.109375 110.890625 L 294.085938 109.609375 L 296.105469 108.246094 L 298.125 106.863281 L 300.105469 105.402344 L 302.003906 103.839844 L 303.90625 102.160156 L 305.75 100.398438 L 307.570312 98.640625 L 309.328125 96.9375 L 310.964844 95.261719 L 312.5 93.625 L 313.871094 92.027344 L 315.058594 90.53125 L 316.121094 89.183594 L 317 88.078125 L 317.78125 87.242188 L 318.417969 86.714844 L 318.8125 86.441406 L 322.40625 92.660156 L 321.769531 93.171875 L 321.09375 93.785156 L 320.257812 94.683594 L 319.316406 95.894531 L 318.25 97.367188 L 317.046875 98.988281 L 315.777344 100.667969 L 314.472656 102.410156 L 313.183594 104.15625 L 312.082031 105.960938 L 311.160156 107.699219 L 310.425781 109.28125 L 309.976562 110.652344 L 309.714844 111.78125 L 309.675781 112.75 L 309.84375 113.59375 L 310.171875 114.335938 L 306.53125 108.027344 L 307.039062 108.632812 L 307.6875 109.09375 L 308.460938 109.332031 L 309.355469 109.367188 L 310.375 109.15625 L 311.457031 108.699219 L 312.621094 108.121094 L 313.820312 107.371094 L 315.042969 106.503906 L 316.304688 105.550781 L 317.527344 104.394531 L 318.734375 103.019531 L 319.859375 101.441406 L 320.878906 99.679688 L 321.761719 97.941406 L 322.515625 96.28125 L 323.148438 94.742188 L 323.617188 93.367188 L 323.9375 92.128906 L 324.089844 91.066406 L 324.164062 90.210938 L 324.117188 89.585938 L 324.027344 89.167969 L 327.875 95.828125 L 327.667969 95.476562 L 327.832031 96.089844 L 327.972656 96.726562 L 328.199219 97.460938 L 328.484375 98.238281 L 324.644531 91.585938 L 324.992188 92.179688 L 325.460938 92.667969 L 326.09375 93.015625 L 326.914062 93.199219 L 327.851562 93.277344 L 329.039062 93.234375 L 330.410156 93.113281 L 331.925781 92.886719 L 333.621094 92.558594 L 335.363281 92.148438 L 337.082031 91.636719 L 338.800781 91.0625 L 340.433594 90.445312 L 341.96875 89.792969 L 343.441406 89.136719 L 344.75 88.480469 L 345.855469 87.867188 L 346.734375 87.332031 L 347.308594 86.945312 L 347.621094 86.683594 L 351.472656 93.359375 L 350.980469 93.230469 L 350.34375 93.371094 L 349.503906 93.554688 L 348.4375 93.753906 L 347.269531 94.082031 L 346.019531 94.511719 L 344.75 95.058594 L 343.417969 95.816406 L 342.066406 96.734375 L 340.65625 97.777344 L 339.179688 98.984375 L 337.707031 100.253906 L 336.253906 101.625 L 334.945312 103.054688 L 333.859375 104.53125 L 333.082031 106.042969 L 332.613281 107.496094 L 332.449219 108.804688 L 332.550781 109.890625 L 332.816406 110.75 L 328.992188 104.121094 L 329.460938 104.757812 L 330.074219 105.226562 L 330.808594 105.59375 L 331.648438 105.816406 L 332.589844 105.957031 L 333.632812 106.015625 L 334.753906 105.972656 L 335.980469 105.828125 L 337.230469 105.5 L 338.414062 104.988281 L 339.539062 104.289062 L 340.625 103.410156 L 341.605469 102.382812 L 342.546875 101.238281 L 343.40625 99.988281 L 344.144531 98.636719 L 344.816406 97.308594 L 345.390625 95.914062 L 345.839844 94.523438 L 346.230469 93.132812 L 346.515625 91.761719 L 346.71875 90.429688 L 346.882812 89.246094 L 346.945312 88.179688 L 346.964844 87.339844 L 346.945312 86.707031 L 346.910156 86.265625 L 346.839844 85.914062 L 350.65625 92.53125 L 350.347656 92.816406 L 350.226562 93.242188 L 350.121094 93.875 L 350.101562 94.609375 L 350.183594 95.429688 L 350.429688 96.308594 L 350.878906 97.148438 L 347.066406 90.546875 L 347.640625 91.285156 L 348.417969 91.875 L 349.316406 92.242188 L 350.382812 92.425781 L 351.609375 92.484375 L 352.894531 92.363281 L 354.183594 92.09375 L 355.492188 91.679688 L 356.839844 91.105469 L 358.25 90.425781 L 359.765625 89.667969 L 361.339844 88.847656 L 362.851562 88.003906 L 364.285156 87.164062 L 365.574219 86.347656 L 366.65625 85.609375 L 367.535156 84.933594 L 368.234375 84.421875 L 368.746094 84.074219 L 369.050781 83.871094 L 372.890625 90.523438 L 372.648438 91.136719 L 372.21875 91.792969 L 371.605469 92.714844 L 370.847656 93.882812 L 370.007812 95.316406 L 369.109375 96.972656 L 368.210938 98.671875 L 367.332031 100.375 L 366.453125 101.953125 L 365.613281 103.425781 L 364.792969 104.816406 L 364.039062 106.128906 L 363.382812 107.335938 L 362.871094 108.421875 L 362.503906 109.339844 L 362.296875 110.058594 L 362.195312 110.628906 L 362.15625 111.003906 L 362.140625 111.316406 L 358.273438 104.621094 L 358.644531 104.210938 L 358.886719 103.820312 L 359.195312 103.246094 L 359.5625 102.511719 L 360.015625 101.570312 L 360.566406 100.425781 L 361.140625 99.09375 L 361.753906 97.578125 L 362.429688 95.921875 L 363.105469 94.121094 L 363.863281 92.257812 L 364.640625 90.398438 L 365.417969 88.65625 L 366.152344 87.144531 L 366.769531 85.917969 L 367.320312 84.957031 L 367.734375 84.242188 L 368.0625 83.753906 L 368.3125 83.417969 L 368.707031 83.261719 L 368.992188 83.691406 L 372.828125 90.335938 L 372.910156 90.78125 L 373.011719 91.273438 L 373.113281 91.847656 L 373.257812 92.421875 L 373.441406 93.035156 L 373.644531 93.648438 L 373.914062 94.285156 L 370.078125 87.640625 L 370.445312 88.273438 L 370.953125 88.824219 L 371.609375 89.332031 L 372.421875 89.714844 L 373.320312 89.953125 L 374.339844 90.089844 L 375.460938 90.085938 L 376.726562 89.9375 L 378.15625 89.667969 L 379.753906 89.273438 L 381.449219 88.738281 L 383.207031 88.101562 L 385.007812 87.40625 L 386.808594 86.625 L 388.566406 85.683594 L 390.304688 84.535156 L 392.085938 83.125 L 393.886719 81.507812 L 395.828125 79.765625 L 397.792969 77.964844 L 399.738281 76.101562 L 401.578125 74.21875 L 403.089844 72.457031 L 404.214844 71.023438 L 405.015625 69.9375 L 405.667969 68.769531 L 406.28125 67.480469 L 406.855469 65.925781 L 407.164062 64.371094 L 407.023438 63.289062 L 410.925781 70.054688 L 410.375 69.480469 L 409.453125 69.417969 L 408.304688 69.703125 L 406.933594 70.316406 L 405.316406 71.15625 L 403.539062 72.199219 L 401.65625 73.429688 L 399.710938 74.859375 L 397.726562 76.601562 L 395.785156 78.589844 L 393.800781 80.800781 L 391.816406 83.21875 L 389.9375 85.71875 L 388.179688 88.285156 L 386.648438 90.867188 L 385.34375 93.328125 L 384.242188 95.789062 L 383.28125 98.128906 L 382.507812 100.34375 L 381.914062 102.453125 L 381.527344 104.378906 L 381.40625 106.164062 L 381.511719 107.742188 L 381.863281 109.097656 L 382.441406 110.128906 L 378.457031 103.226562 L 379.3125 103.917969 L 380.390625 104.257812 L 381.800781 104.234375 L 383.476562 103.902344 L 385.398438 103.265625 L 387.503906 102.34375 L 389.796875 101.113281 L 392.210938 99.617188 L 394.769531 97.875 L 397.488281 95.953125 L 400.332031 93.945312 L 403.238281 91.957031 L 406.078125 90.070312 L 408.671875 88.488281 L 410.964844 87.214844 L 412.863281 86.308594 L 414.417969 85.753906 L 415.601562 85.359375 L 416.558594 85.144531 L 417.167969 85.015625 L 417.507812 84.917969 L 421.601562 92.011719 L 421.152344 91.953125 L 420.785156 91.996094 L 420.355469 92.015625 L 419.84375 92.058594 L 419.230469 92.078125 L 418.535156 92.078125 L 417.796875 92.058594 L 417.042969 92.058594 L 416.28125 92.140625 L 415.464844 92.320312 L 414.542969 92.585938 L 413.5 92.996094 L 412.269531 93.546875 L 410.898438 94.265625 L 409.40625 95.226562 L 407.832031 96.394531 L 406.234375 97.703125 L 404.738281 99.09375 L 403.328125 100.425781 L 402.097656 101.652344 L 401.078125 102.796875 L 400.296875 103.839844 L 399.765625 104.777344 L 399.476562 105.71875 L 399.351562 106.574219 L 399.414062 107.332031 L 399.597656 108.003906 L 395.515625 100.933594 L 395.882812 101.445312 L 396.375 101.816406 L 396.949219 102.039062 L 397.664062 102.125 L 398.464844 102.042969 L 399.40625 101.753906 L 400.488281 101.285156 L 401.695312 100.589844 L 403.027344 99.746094 L 404.476562 98.746094 L 406.054688 97.558594 L 407.792969 96.207031 L 409.714844 94.507812 L 411.804688 92.480469 L 414.074219 90.128906 L 416.570312 87.425781 L 419.273438 84.582031 L 422.097656 81.574219 L 424.984375 78.527344 L 427.835938 75.515625 L 430.546875 72.503906 L 433.136719 69.632812 L 435.457031 67.011719 L 437.527344 64.664062 L 439.210938 62.785156 L 440.441406 61.417969 L 441.203125 60.527344 L 441.515625 60.066406 L 445.480469 66.933594 L 444.78125 67.199219 L 443.839844 67.996094 L 442.492188 69.203125 L 440.855469 70.71875 L 438.992188 72.5 L 436.988281 74.503906 L 434.816406 76.734375 L 432.363281 79.417969 L 429.621094 82.507812 L 426.53125 85.921875 L 423.195312 89.6875 L 419.984375 93.4375 L 416.996094 97.019531 L 414.703125 100.234375 L 413.171875 102.875 L 412.539062 104.945312 L 412.828125 106.464844 L 408.84375 99.566406 L 410.109375 100.480469 L 412.386719 100.875 L 415.640625 100.777344 L 419.984375 100.21875 L 425.207031 99.378906 L 430.921875 97.851562 L 437.203125 96.121094 L 445.261719 96.488281 L 445.542969 96.976562 L 440.296875 101.480469 L 434.097656 103.351562 L 428.390625 104.890625 L 423.546875 106.386719 L 419.457031 107.382812 L 416.324219 107.695312 L 414.101562 107.390625 L 412.828125 106.464844 L 408.84375 99.566406 L 408.5625 98.058594 L 409.199219 95.992188 L 410.734375 93.359375 L 413.027344 90.144531 L 416.015625 86.566406 L 419.230469 82.824219 L 422.566406 79.058594 L 425.65625 75.640625 L 428.398438 72.550781 L 430.855469 69.871094 L 433.023438 67.640625 L 435.027344 65.632812 L 436.890625 63.855469 L 438.527344 62.339844 L 439.878906 61.132812 L 440.820312 60.335938 L 441.515625 60.066406 L 445.480469 66.933594 L 445.179688 67.417969 L 444.425781 68.324219 L 443.203125 69.699219 L 441.527344 71.589844 L 439.460938 73.945312 L 437.160156 76.601562 L 434.589844 79.503906 L 431.898438 82.550781 L 429.0625 85.59375 L 426.179688 88.644531 L 423.355469 91.65625 L 420.65625 94.5 L 418.160156 97.199219 L 415.886719 99.554688 L 413.796875 101.578125 L 411.875 103.277344 L 410.136719 104.625 L 408.558594 105.8125 L 407.105469 106.816406 L 405.777344 107.652344 L 404.566406 108.351562 L 403.484375 108.820312 L 402.542969 109.105469 L 401.742188 109.1875 L 401.027344 109.105469 L 400.453125 108.882812 L 399.964844 108.515625 L 399.597656 108.003906 L 395.515625 100.933594 L 395.328125 100.257812 L 395.265625 99.496094 L 395.386719 98.636719 L 395.675781 97.691406 L 396.203125 96.75 L 396.980469 95.703125 L 398.003906 94.558594 L 399.230469 93.328125 L 400.644531 92 L 402.136719 90.609375 L 403.734375 89.296875 L 405.308594 88.132812 L 406.804688 87.171875 L 408.175781 86.453125 L 409.402344 85.902344 L 410.445312 85.492188 L 411.367188 85.226562 L 412.183594 85.039062 L 412.941406 84.957031 L 413.699219 84.957031 L 414.433594 84.976562 L 415.128906 84.976562 L 415.746094 84.957031 L 416.257812 84.917969 L 416.6875 84.894531 L 417.054688 84.855469 L 417.507812 84.917969 L 421.601562 92.011719 L 421.246094 92.082031 L 420.628906 92.195312 L 419.660156 92.390625 L 418.472656 92.777344 L 416.914062 93.324219 L 415.007812 94.21875 L 412.714844 95.484375 L 410.109375 97.054688 L 407.261719 98.933594 L 404.355469 100.914062 L 401.507812 102.917969 L 398.789062 104.839844 L 396.230469 106.578125 L 393.8125 108.070312 L 391.519531 109.296875 L 389.410156 110.214844 L 387.484375 110.847656 L 385.804688 111.171875 L 384.390625 111.1875 L 383.300781 110.832031 L 382.441406 110.128906 L 378.457031 103.226562 L 377.886719 102.214844 L 377.542969 100.867188 L 377.441406 99.296875 L 377.566406 97.519531 L 377.957031 95.597656 L 378.550781 93.492188 L 379.332031 91.285156 L 380.296875 88.957031 L 381.40625 86.507812 L 382.71875 84.058594 L 384.257812 81.488281 L 386.019531 78.933594 L 387.90625 76.441406 L 389.890625 74.03125 L 391.878906 71.824219 L 393.824219 69.839844 L 395.808594 68.101562 L 397.753906 66.671875 L 399.636719 65.441406 L 401.417969 64.398438 L 403.03125 63.558594 L 404.402344 62.945312 L 405.550781 62.65625 L 406.46875 62.71875 L 407.023438 63.289062 L 410.925781 70.054688 L 411.074219 71.144531 L 410.765625 72.699219 L 410.195312 74.253906 L 409.578125 75.542969 L 408.925781 76.710938 L 408.125 77.792969 L 407 79.222656 L 405.484375 80.984375 L 403.640625 82.863281 L 401.695312 84.726562 L 399.730469 86.523438 L 397.789062 88.265625 L 395.984375 89.878906 L 394.203125 91.289062 L 392.464844 92.4375 L 390.703125 93.375 L 388.902344 94.152344 L 387.101562 94.847656 L 385.339844 95.476562 L 383.640625 96.007812 L 382.042969 96.394531 L 380.605469 96.65625 L 379.335938 96.792969 L 378.207031 96.785156 L 377.179688 96.636719 L 376.273438 96.386719 L 375.453125 95.992188 L 374.796875 95.476562 L 374.28125 94.921875 L 373.914062 94.285156 L 370.078125 87.640625 L 369.8125 87.007812 L 369.609375 86.394531 L 369.425781 85.78125 L 369.28125 85.207031 L 369.179688 84.636719 L 369.078125 84.144531 L 368.992188 83.691406 L 372.828125 90.335938 L 372.542969 89.90625 L 372.160156 90.078125 L 371.917969 90.4375 L 371.59375 90.929688 L 371.183594 91.648438 L 370.632812 92.609375 L 370.019531 93.839844 L 369.285156 95.355469 L 368.507812 97.09375 L 367.730469 98.957031 L 366.972656 100.820312 L 366.296875 102.621094 L 365.621094 104.277344 L 365.007812 105.792969 L 364.433594 107.121094 L 363.882812 108.269531 L 363.429688 109.210938 L 363.0625 109.945312 L 362.757812 110.519531 L 362.511719 110.90625 L 362.140625 111.316406 L 358.273438 104.621094 L 358.300781 104.320312 L 358.34375 103.957031 L 358.445312 103.382812 L 358.648438 102.667969 L 359.019531 101.746094 L 359.53125 100.660156 L 360.183594 99.453125 L 360.941406 98.144531 L 361.761719 96.753906 L 362.601562 95.28125 L 363.480469 93.707031 L 364.363281 92.011719 L 365.265625 90.3125 L 366.164062 88.65625 L 367.003906 87.226562 L 367.761719 86.0625 L 368.378906 85.140625 L 368.808594 84.484375 L 369.050781 83.871094 L 372.890625 90.523438 L 372.585938 90.730469 L 372.074219 91.078125 L 371.378906 91.589844 L 370.5 92.265625 L 369.414062 93 L 368.125 93.820312 L 366.691406 94.65625 L 365.175781 95.492188 L 363.597656 96.308594 L 362.082031 97.0625 L 360.667969 97.738281 L 359.316406 98.308594 L 358.007812 98.714844 L 356.714844 98.976562 L 355.425781 99.097656 L 354.195312 99.035156 L 353.132812 98.847656 L 352.230469 98.480469 L 351.453125 97.886719 L 350.878906 97.148438 L 347.066406 90.546875 L 346.617188 89.707031 L 346.371094 88.828125 L 346.289062 88.011719 L 346.308594 87.273438 L 346.410156 86.636719 L 346.53125 86.203125 L 346.839844 85.914062 L 350.65625 92.53125 L 350.75 92.917969 L 350.796875 93.375 L 350.816406 94.011719 L 350.796875 94.851562 L 350.734375 95.914062 L 350.570312 97.101562 L 350.367188 98.429688 L 350.082031 99.800781 L 349.691406 101.195312 L 349.242188 102.585938 L 348.667969 103.976562 L 347.992188 105.304688 L 347.253906 106.65625 L 346.394531 107.90625 L 345.453125 109.050781 L 344.472656 110.070312 L 343.386719 110.949219 L 342.257812 111.644531 L 341.070312 112.15625 L 339.820312 112.480469 L 338.59375 112.621094 L 337.464844 112.660156 L 336.421875 112.597656 L 335.480469 112.453125 L 334.640625 112.226562 L 333.902344 111.855469 L 333.289062 111.382812 L 332.816406 110.75 L 328.992188 104.121094 L 328.722656 103.261719 L 328.621094 102.179688 L 328.785156 100.867188 L 329.253906 99.414062 L 330.035156 97.902344 L 331.117188 96.425781 L 332.429688 94.996094 L 333.878906 93.625 L 335.355469 92.355469 L 336.828125 91.144531 L 338.238281 90.101562 L 339.589844 89.179688 L 340.917969 88.421875 L 342.183594 87.867188 L 343.433594 87.433594 L 344.597656 87.105469 L 345.660156 86.898438 L 346.5 86.714844 L 347.132812 86.566406 L 347.621094 86.683594 L 351.472656 93.359375 L 351.167969 93.628906 L 350.597656 94.019531 L 349.714844 94.550781 L 348.609375 95.164062 L 347.300781 95.816406 L 345.828125 96.472656 L 344.292969 97.125 L 342.652344 97.738281 L 340.933594 98.3125 L 339.214844 98.820312 L 337.476562 99.230469 L 335.777344 99.558594 L 334.261719 99.78125 L 332.890625 99.902344 L 331.703125 99.945312 L 330.761719 99.859375 L 329.941406 99.675781 L 329.304688 99.324219 L 328.835938 98.832031 L 328.484375 98.238281 L 324.644531 91.585938 L 324.359375 90.808594 L 324.132812 90.070312 L 323.988281 89.4375 L 323.824219 88.824219 L 324.027344 89.167969 L 327.875 95.828125 L 327.949219 96.226562 L 327.984375 96.828125 L 327.894531 97.652344 L 327.71875 98.679688 L 327.386719 99.898438 L 326.910156 101.261719 L 326.277344 102.792969 L 325.515625 104.449219 L 324.636719 106.1875 L 323.613281 107.945312 L 322.484375 109.519531 L 321.277344 110.886719 L 320.042969 112.023438 L 318.769531 112.953125 L 317.535156 113.800781 L 316.320312 114.527344 L 315.152344 115.09375 L 314.0625 115.539062 L 313.035156 115.738281 L 312.132812 115.691406 L 311.347656 115.4375 L 310.6875 114.957031 L 310.171875 114.335938 L 306.53125 108.027344 L 306.207031 107.296875 L 306.046875 106.460938 L 306.089844 105.503906 L 306.355469 104.382812 L 306.808594 103.011719 L 307.546875 101.441406 L 308.46875 99.703125 L 309.578125 97.90625 L 310.867188 96.171875 L 312.179688 94.433594 L 313.449219 92.761719 L 314.660156 91.148438 L 315.726562 89.675781 L 316.667969 88.46875 L 317.503906 87.566406 L 318.179688 86.953125 L 318.8125 86.441406 L 322.40625 92.660156 L 322.023438 92.957031 L 321.390625 93.496094 L 320.617188 94.339844 L 319.738281 95.445312 L 318.671875 96.796875 L 317.484375 98.289062 L 316.113281 99.886719 L 314.578125 101.519531 L 312.941406 103.199219 L 311.179688 104.894531 L 309.359375 106.65625 L 307.515625 108.414062 L 305.613281 110.089844 L 303.707031 111.640625 L 301.71875 113.085938 L 299.683594 114.445312 L 297.648438 115.78125 L 295.660156 117.039062 L 293.773438 118.199219 L 292.113281 119.136719 L 290.742188 119.769531 L 289.632812 120.152344 L 288.792969 120.230469 L 288.195312 120.082031 L 287.820312 119.746094 L 284.3125 113.664062 L 284.128906 113.097656 L 284.132812 112.324219 L 284.277344 111.367188 L 284.484375 110.226562 L 284.855469 109.0625 L 285.351562 107.902344 L 285.96875 106.828125 L 286.667969 105.8125 L 287.410156 104.734375 L 288.152344 103.597656 L 288.976562 102.359375 L 289.882812 101.039062 L 290.851562 99.695312 L 291.898438 98.414062 L 292.882812 97.191406 L 293.804688 96.03125 L 294.667969 94.925781 L 295.445312 93.804688 L 296.121094 92.660156 L 296.675781 91.519531 L 297.070312 90.417969 L 297.296875 89.441406 L 297.429688 88.59375 L 297.5 87.957031 L 297.429688 87.445312 L 297.277344 87.058594 L 300.558594 92.738281 L 300.257812 92.40625 L 299.8125 92.113281 L 299.367188 91.925781 L 298.839844 91.773438 L 298.304688 91.675781 L 297.75 91.636719 L 297.175781 91.636719 L 296.539062 91.640625 L 295.808594 91.695312 L 294.996094 91.796875 L 294.089844 91.949219 L 293.144531 92.140625 L 292.191406 92.449219 L 291.277344 92.777344 L 290.417969 93.171875 L 289.621094 93.585938 L 288.859375 93.953125 L 288.179688 94.300781 L 287.578125 94.578125 L 287.078125 94.832031 L 286.738281 95.0625 L 286.460938 95.25 Z M 286.101562 95.648438 "/>
</g>
</svg>
